(footprint "TQFP-32_5x5mm_P0.5mm" (version 20210424) (generator pcbnew) (layer "F.Cu")
  (tedit 6091858B)
  (descr "32-Lead Plastic Quad Flatpack - 5x5x1.0 mm Body[TQFP]")
  (tags "QFP 32 0.5")
  (solder_mask_margin 0.05)
  (solder_paste_margin -0.05)
  (attr smd)
  (fp_text reference "REF**" (at 0.1 -4.75 unlocked) (layer "F.SilkS")
    (effects (font (size 1 1) (thickness 0.15)))
    (tstamp 41b55adc-6fd0-4b55-b577-128bc63102e1)
  )
  (fp_text value "TQFP-32_5x5mm_P0.5mm" (at 0 5.5 unlocked) (layer "F.Fab")
    (effects (font (size 1 1) (thickness 0.15)))
    (tstamp adca4046-efa3-4923-a8c5-d94d9c0de017)
  )
  (fp_text user "${REFERENCE}" (at 0.1 -0.81 unlocked) (layer "F.Fab")
    (effects (font (size 1 1) (thickness 0.15)))
    (tstamp 61eb49a2-71d0-47a7-ba0d-6a488d1c0159)
  )
  (fp_circle (center -2.8 -2.85) (end -2.6 -2.85) (layer "F.SilkS") (width 0.12) (fill solid) (tstamp 42b8c4fd-714b-4280-8fff-aa4b9facff26))
  (fp_line (start 4.15 4.15) (end 4.15 -4.15) (layer "F.CrtYd") (width 0.05) (tstamp 23eea747-a721-44f6-800f-da0fae2d9081))
  (fp_line (start 4.15 -4.15) (end -4.15 -4.15) (layer "F.CrtYd") (width 0.05) (tstamp 80fedcde-fcdc-4832-8288-40472f821f2b))
  (fp_line (start -4.15 -4.15) (end -4.15 4.15) (layer "F.CrtYd") (width 0.05) (tstamp b1f1be5f-17ad-4cbc-93f4-465a2ed376bd))
  (fp_line (start -4.15 4.15) (end 4.15 4.15) (layer "F.CrtYd") (width 0.05) (tstamp b6f0ff8d-42cc-44da-9de8-62f80ec78dec))
  (fp_rect (start 0 0) (end 0 0) (layer "F.CrtYd") (width 0.05) (fill none) (tstamp 29cb054c-bfe7-48f0-b5ef-560b96c76a30))
  (fp_line (start -2.5 -1.5) (end -1.5 -2.5) (layer "F.Fab") (width 0.1) (tstamp 0d14369b-dbf4-4672-97d2-50bb780dc9cf))
  (fp_line (start 2.5 2.5) (end 2.5 -2.5) (layer "F.Fab") (width 0.1) (tstamp 256aac10-1e53-47cb-a37a-a93a66b92306))
  (fp_line (start -2.5 2.5) (end 2.5 2.5) (layer "F.Fab") (width 0.1) (tstamp 82d8591a-599d-4662-b807-a983685712a6))
  (fp_line (start 2.5 -2.5) (end -1.5 -2.5) (layer "F.Fab") (width 0.1) (tstamp b13cb56b-407f-4722-9d12-5c385aa3eefa))
  (fp_line (start -2.5 -1.5) (end -2.5 2.5) (layer "F.Fab") (width 0.1) (tstamp b73d018b-05b6-46b8-beb9-9bfff6712b16))
  (pad "1" smd roundrect (at -3.1 -1.75) (size 1.6 0.3) (layers "F.Cu" "F.Paste" "F.Mask") (roundrect_rratio 0.25) (tstamp 4a28c0bf-9645-40da-8c00-27e9bb32cee1))
  (pad "2" smd roundrect (at -3.1 -1.25) (size 1.6 0.3) (layers "F.Cu" "F.Paste" "F.Mask") (roundrect_rratio 0.25) (tstamp c7cd24e6-c11d-49d6-8d27-14f5db6a8031))
  (pad "3" smd roundrect (at -3.1 -0.75) (size 1.6 0.3) (layers "F.Cu" "F.Paste" "F.Mask") (roundrect_rratio 0.25) (tstamp 73dd186c-473c-4cc0-a4ed-c459a3fe573c))
  (pad "4" smd roundrect (at -3.1 -0.25) (size 1.6 0.3) (layers "F.Cu" "F.Paste" "F.Mask") (roundrect_rratio 0.25) (tstamp c7b31811-0a2a-412c-aaac-4dcbaf2c460d))
  (pad "5" smd roundrect (at -3.1 0.25) (size 1.6 0.3) (layers "F.Cu" "F.Paste" "F.Mask") (roundrect_rratio 0.25) (tstamp 73395a04-fcc5-424b-a753-f0d8a4a40799))
  (pad "6" smd roundrect (at -3.1 0.75) (size 1.6 0.3) (layers "F.Cu" "F.Paste" "F.Mask") (roundrect_rratio 0.25) (tstamp 419c24a6-8fc9-45d7-aa73-6afbadd3aed8))
  (pad "7" smd roundrect (at -3.1 1.25) (size 1.6 0.3) (layers "F.Cu" "F.Paste" "F.Mask") (roundrect_rratio 0.25) (tstamp b09c3b71-ea19-4fdd-a2e9-12304b0fb74d))
  (pad "8" smd roundrect (at -3.1 1.75) (size 1.6 0.3) (layers "F.Cu" "F.Paste" "F.Mask") (roundrect_rratio 0.25) (tstamp 865265cf-6ce3-4287-a37a-d841aee29b84))
  (pad "9" smd roundrect (at -1.75 3.1 90) (size 1.6 0.3) (layers "F.Cu" "F.Paste" "F.Mask") (roundrect_rratio 0.25) (tstamp 9f5e152e-748d-4f5b-9b13-28bca9163246))
  (pad "10" smd roundrect (at -1.25 3.1 90) (size 1.6 0.3) (layers "F.Cu" "F.Paste" "F.Mask") (roundrect_rratio 0.25) (tstamp 2ac3d906-c6e9-4c07-b518-c0e3c593781f))
  (pad "11" smd roundrect (at -0.75 3.1 90) (size 1.6 0.3) (layers "F.Cu" "F.Paste" "F.Mask") (roundrect_rratio 0.25) (tstamp c2743c58-ad75-47d7-98a4-3e51f4c28687))
  (pad "12" smd roundrect (at -0.25 3.1 90) (size 1.6 0.3) (layers "F.Cu" "F.Paste" "F.Mask") (roundrect_rratio 0.25) (tstamp 47d3f7b5-3da8-4b65-9b0d-5e60049f507a))
  (pad "13" smd roundrect (at 0.25 3.1 90) (size 1.6 0.3) (layers "F.Cu" "F.Paste" "F.Mask") (roundrect_rratio 0.25) (tstamp b9d84441-bd75-4de0-b4ce-907fb4aa8426))
  (pad "14" smd roundrect (at 0.75 3.1 90) (size 1.6 0.3) (layers "F.Cu" "F.Paste" "F.Mask") (roundrect_rratio 0.25) (tstamp 1015c54f-202e-4d3d-b169-f7aa1baef80b))
  (pad "15" smd roundrect (at 1.25 3.1 90) (size 1.6 0.3) (layers "F.Cu" "F.Paste" "F.Mask") (roundrect_rratio 0.25) (tstamp bfc76b8f-bba5-4664-bf5d-4c9fb928bf9a))
  (pad "16" smd roundrect (at 1.75 3.1 90) (size 1.6 0.3) (layers "F.Cu" "F.Paste" "F.Mask") (roundrect_rratio 0.25) (tstamp abdc8133-dedd-45d1-80c5-5c901357058b))
  (pad "17" smd roundrect (at 3.1 1.75) (size 1.6 0.3) (layers "F.Cu" "F.Paste" "F.Mask") (roundrect_rratio 0.25) (tstamp 146689f1-f992-48a5-98b1-078720922686))
  (pad "18" smd roundrect (at 3.1 1.25) (size 1.6 0.3) (layers "F.Cu" "F.Paste" "F.Mask") (roundrect_rratio 0.25) (tstamp 19182498-25c4-40e9-94fc-7b8db6ecea3a))
  (pad "19" smd roundrect (at 3.1 0.75) (size 1.6 0.3) (layers "F.Cu" "F.Paste" "F.Mask") (roundrect_rratio 0.25) (tstamp 93b763b4-1ff8-47db-b46c-79e6da3b7204))
  (pad "20" smd roundrect (at 3.1 0.25) (size 1.6 0.3) (layers "F.Cu" "F.Paste" "F.Mask") (roundrect_rratio 0.25) (tstamp 71819d66-dd82-4a2c-9c8c-353d2fe6c9a7))
  (pad "21" smd roundrect (at 3.1 -0.25) (size 1.6 0.3) (layers "F.Cu" "F.Paste" "F.Mask") (roundrect_rratio 0.25) (tstamp 81182d29-dcf4-44c5-aecd-1e346de70d30))
  (pad "22" smd roundrect (at 3.1 -0.75) (size 1.6 0.3) (layers "F.Cu" "F.Paste" "F.Mask") (roundrect_rratio 0.25) (tstamp eb6f7179-0815-4938-8fa9-f3f120d18639))
  (pad "23" smd roundrect (at 3.1 -1.25) (size 1.6 0.3) (layers "F.Cu" "F.Paste" "F.Mask") (roundrect_rratio 0.25) (tstamp 7da9b6be-24f7-4e48-82c2-75fcb3ed0ec2))
  (pad "24" smd roundrect (at 3.1 -1.75) (size 1.6 0.3) (layers "F.Cu" "F.Paste" "F.Mask") (roundrect_rratio 0.25)
    (solder_mask_margin 0.05) (tstamp e7772a6c-3633-4d01-a191-718e55cc6015))
  (pad "25" smd roundrect (at 1.75 -3.1 90) (size 1.6 0.3) (layers "F.Cu" "F.Paste" "F.Mask") (roundrect_rratio 0.25) (tstamp a47fc9ad-f0bc-43a7-8892-dccafd00b55b))
  (pad "26" smd roundrect (at 1.25 -3.1 90) (size 1.6 0.3) (layers "F.Cu" "F.Paste" "F.Mask") (roundrect_rratio 0.25) (tstamp f1362363-5e2a-47c4-8e6e-b5833c42af28))
  (pad "27" smd roundrect (at 0.75 -3.1 90) (size 1.6 0.3) (layers "F.Cu" "F.Paste" "F.Mask") (roundrect_rratio 0.25) (tstamp 0b8faa94-82ef-43b1-a8a6-d6287d97e82d))
  (pad "28" smd roundrect (at 0.25 -3.1 90) (size 1.6 0.3) (layers "F.Cu" "F.Paste" "F.Mask") (roundrect_rratio 0.25) (tstamp 578ae2e9-2750-4abb-8c94-a9dc889c48bf))
  (pad "29" smd roundrect (at -0.25 -3.1 90) (size 1.6 0.3) (layers "F.Cu" "F.Paste" "F.Mask") (roundrect_rratio 0.25) (tstamp 3ffcbd74-d06b-42e1-b223-c2d62f48e2c3))
  (pad "30" smd roundrect (at -0.75 -3.1 90) (size 1.6 0.3) (layers "F.Cu" "F.Paste" "F.Mask") (roundrect_rratio 0.25) (tstamp b15825e1-f830-4897-978a-02f5ff8e442b))
  (pad "31" smd roundrect (at -1.25 -3.1 90) (size 1.6 0.3) (layers "F.Cu" "F.Paste" "F.Mask") (roundrect_rratio 0.25) (tstamp d0c9e3ba-9a3a-45a4-acdc-8ee55da3bbf6))
  (pad "32" smd roundrect (at -1.75 -3.1 90) (size 1.6 0.3) (layers "F.Cu" "F.Paste" "F.Mask") (roundrect_rratio 0.25) (tstamp cd21c21c-b75a-4a33-8729-fb26b912d0ac))
  (model "C:/Users/Gudni/Downloads/ul_ADS114S06IPBS/STEP/PBS0032A.stp"
    (offset (xyz 0 0 0))
    (scale (xyz 1 1 1))
    (rotate (xyz 0 0 0))
  )
)
